id,name,model_id:id,group_id:id,perm_read,perm_write,perm_create,perm_unlink

access_insurance_claim,access.insurance.claim,model_insurance_claim,base.group_user,1,1,1,1
access_claim_document_action,access.claim.document.action,model_claim_document_action,base.group_user,1,1,1,1
access_settle_history,access_settle_history,model_settle_history,base.group_user,1,1,1,1
access_payment_difference_justification,access.payment.difference.justification,model_difference_justification,base.group_user,1,1,1,1
access_claim_document_details,access.claim.document.details,model_claim_document_details,base.group_user,1,1,1,1



